{"id":1479706353812,"name":"ram","dob":"12","post":"qa"}
{"id":1479721057848,"name":"ant","dob":"1234","post":"asdf"}
{"id":1479721071289,"name":"ball","dob":"123","post":"zxc"}
{"id":1479721081186,"name":"cat","dob":"1234566","post":"alkjhg"}
{"id":1479721095716,"name":"dog","dob":"098","post":"oiuy"}
{"id":1479794864120,"name":"cookie","dob":"123","post":"asd"}
